…
We can then use the `enrich_network` to test for significantly enriched Reactome
pathways (implemented with
[ReactomePA](https://bioconductor.org/packages/ReactomePA/)):

```r
> (sig_pathways <- enrich_network(network = ex_net, filter = 0.05))
# # A tibble: 211 × 5
#    id            description                                          p_value   p_adjust gene_id
#    <chr>         <chr>                                                  <dbl>      <dbl> <chr>  
#  1 R-HSA-2029480 Fcgamma receptor (FCGR) dependent phagocytosis       2.15e-11    1.01e-8 695/74…
#  2 R-HSA-449147  Signaling by Interleukins                            2.22e-11    1.01e-8 3383/8…
#  3 R-HSA-2424491 DAP12 signaling                                      2.72e-10    8.16e-8 695/58…
#  4 R-HSA-1433557 Signaling by SCF-KIT                                 4.33e-10    8.16e-8 5879/5…
#  5 R-HSA-877300  Interferon gamma signaling                           6.24e-10    8.16e-8 3383/5…
#  6 R-HSA-9664407 Parasite infection                                   7.18e-10    8.16e-8 695/74…
#  7 R-HSA-9664417 Leishmania phagocytosis                              7.18e-10    8.16e-8 695/74…
#  8 R-HSA-9664422 FCGR3A-mediated phagocytosis                         7.18e-10    8.16e-8 695/74…
#  9 R-HSA-2029482 Regulation of actin dynamics for phagocytic cup ...  1.05e- 9    1.06e-7 695/74…
# 10 R-HSA-388841  Costimulation by the CD28 family                     4.13e- 9    3.75e-7 5879/5…
# # … with 201 more rows
```
…
